…
Thu Nov 30 06:00:43 2017  2001 
Thu Nov 30 06:00:44 2017  2002 
Thu Nov 30 06:00:45 2017  2003 
Thu Nov 30 06:00:46 2017  2004 
Thu Nov 30 06:00:47 2017  2005 
Thu Nov 30 06:00:48 2017  2006 
Thu Nov 30 06:00:48 2017  2007 
Thu Nov 30 06:00:49 2017  2008 
Thu Nov 30 06:00:49 2017  2009 
Thu Nov 30 06:00:49 2017  Saving outputs//4-analysis/startdate.pdf 
Thu Nov 30 06:00:50 2017  Saving outputs//4-analysis/startdate_2d.pdf 
Thu Nov 30 06:00:51 2017  ------------------- 
Thu Nov 30 06:00:51 2017  Doing Referee 1 site-level analysis... 
Thu Nov 30 06:00:51 2017  There are 23 sites with at least 3 observations over at least 8 years 
# A tibble: 23 x 9
# Groups:   Longitude, Latitude, Ecosystem_state [20]
   Longitude Latitude Ecosystem_state       Land_cover nyears  pre_trend   tmp_trend
       <dbl>    <dbl>           <chr>           <fctr>  <int>      <dbl>       <dbl>
 1     -84.3     36.0         Natural Deciduous Forest      5 -6.7809023 0.023176692
 2     -72.2     42.5         Natural Deciduous Forest     28  9.5368704 0.038145933
 3     -72.2     42.5         Natural Evergreen Forest     18  9.7372180 0.038496241
 4     -72.2     42.5         Natural            Other     19  9.7372180 0.038496241
 5     -79.1     36.0         Managed Evergreen Forest     16         NA          NA
 6      24.3     61.8         Natural            Other      3 -0.4293233 0.009730576
 7      24.3     61.9       Unmanaged Evergreen Forest      9 -0.4293233 0.009730576
 8     -97.5     35.0         Natural        Grassland      9 -5.9784962 0.048408521
 9     -72.3     42.9         Natural Deciduous Forest      6  9.7372180 0.038496241
10      11.9     50.1         Natural Evergreen Forest      6  6.0968421 0.021422306
# ... with 13 more rows, and 2 more variables: year_range <dbl>, Site_name <chr>
Thu Nov 30 06:00:51 2017  Saving outputs//4-analysis/longterm_sites_list.csv 
Thu Nov 30 06:00:52 2017  Saving outputs//4-analysis/Rs_longitudinal_trends_climate.pdf 
Thu Nov 30 06:00:53 2017  
# A tibble: 28 x 5
# Groups:   Land_cover, tmp_trend, pre_trend [28]
      tmp_trend  pre_trend       Land_cover `Not rising` Rising
 *        <dbl>      <dbl>           <fctr>        <dbl>  <dbl>
 1 -0.027907268 -3.4299248 Evergreen Forest            1     NA
 2 -0.013828321 -2.3610526 Evergreen Forest           NA      1
 3 -0.010545113  4.4838346 Deciduous Forest            2     NA
 4  0.009730576 -0.4293233 Evergreen Forest            1      3
 5  0.009730576 -0.4293233            Other           NA      2
 6  0.013170426 -2.1372180 Evergreen Forest            2     NA
 7  0.013170426 -2.1372180 Deciduous Forest            1     NA
 8  0.021422306  6.0968421 Evergreen Forest           NA      1
 9  0.021422306  6.0968421            Other            1     NA
10  0.021647870  1.7245113 Evergreen Forest            1      1
# ... with 18 more rows
…
